GROUP,PACKAGE,CLASS,INSTRUCTION_MISSED,INSTRUCTION_COVERED,BRANCH_MISSED,BRANCH_COVERED,LINE_MISSED,LINE_COVERED,COMPLEXITY_MISSED,COMPLEXITY_COVERED,METHOD_MISSED,METHOD_COVERED
sistema-solar,co.com.mercadolibre.sistema.solar.componentes,Job,0,47,1,1,0,14,1,3,0,3
sistema-solar,co.com.mercadolibre.sistema.solar.componentes,PronosticadorClimaHandler,8,180,3,12,2,39,3,13,0,8
sistema-solar,co.com.mercadolibre.sistema.solar.servicios.impl,PronosticadorServiceImpl,12,170,3,15,2,36,3,12,0,6
sistema-solar,co.com.mercadolibre.sistema.solar.excepciones,ExcepcionOpciones,3,42,0,0,1,8,1,3,1,3
sistema-solar,co.com.mercadolibre.sistema.solar.excepciones,SistemaRuntimeException,0,9,0,0,0,4,0,2,0,2
sistema-solar,co.com.mercadolibre.sistema.solar.excepciones,ExcepcionHandler,10,125,1,1,3,25,2,5,1,5
sistema-solar,co.com.mercadolibre.sistema.solar.utilidades,RectaUtil,0,58,0,4,0,9,0,5,0,3
sistema-solar,co.com.mercadolibre.sistema.solar.utilidades,TrianguloUtil,0,166,0,16,0,19,0,11,0,3
sistema-solar,co.com.mercadolibre.sistema.solar.utilidades,IdUtil,0,6,0,0,0,1,0,1,0,1
sistema-solar,co.com.mercadolibre.sistema.solar.utilidades,CoordenadaUtil,0,50,0,4,0,11,0,4,0,2
sistema-solar,co.com.mercadolibre.sistema.solar.api,ClimaApiController,0,21,0,0,0,5,0,3,0,3
